G04 #@! TF.GenerationSoftware,KiCad,Pcbnew,(5.1.5)-3*
G04 #@! TF.CreationDate,2020-05-12T16:37:51+03:00*
G04 #@! TF.ProjectId,lokie-talkie,6c6f6b69-652d-4746-916c-6b69652e6b69,rev?*
G04 #@! TF.SameCoordinates,Original*
G04 #@! TF.FileFunction,Profile,NP*
%FSLAX46Y46*%
G04 Gerber Fmt 4.6, Leading zero omitted, Abs format (unit mm)*
G04 Created by KiCad (PCBNEW (5.1.5)-3) date 2020-05-12 16:37:51*
%MOMM*%
%LPD*%
G04 APERTURE LIST*
%ADD10C,0.050000*%
G04 APERTURE END LIST*
D10*
X230000000Y-52500000D02*
X230000000Y-120000000D01*
X160000000Y-120000000D02*
X162500000Y-120000000D01*
X160000000Y-117500000D02*
X160000000Y-120000000D01*
X160000000Y-50000000D02*
X162500000Y-50000000D01*
X160000000Y-52500000D02*
X160000000Y-50000000D01*
X230000000Y-50000000D02*
X230000000Y-52500000D01*
X227500000Y-50000000D02*
X230000000Y-50000000D01*
X227500000Y-120000000D02*
X230000000Y-120000000D01*
X160000000Y-117500000D02*
X160000000Y-52500000D01*
X227500000Y-120000000D02*
X162500000Y-120000000D01*
X162500000Y-50000000D02*
X227500000Y-50000000D01*
M02*
